{
  "products":  [
    {
      "productId": "1",
      "name": "Lök",
      "deliveryDays": [
        "Mon",
        "Wed",
        "Thu",
        "Fri"
      ],
      "productType": "Normal",
      "daysInAdvance": 0
    },
    {
      "productId": "2",
      "name": "Kycling",
      "deliveryDays": [
        "Tue",
        "Wed",
        "Thu",
        "Son"
      ],
      "productType": "External",
      "daysInAdvance": 2
    },
    {
      "productId": "3",
      "name": "Avokado",
      "deliveryDays": [
        "Mon",
        "Wed",
        "Thu",
        "Fri"
      ],
      "productType": "Temporary",
      "daysInAdvance": 2
    },
    {
      "productId": "4",
      "name": "Paprika",
      "deliveryDays": [
        "Mon",
        "Wed",
        "Thu",
        "Fri"
      ],
      "productType": "Normal",
      "daysInAdvance": 2
    },
    {
      "productId": "5",
      "name": "Vitlök",
      "deliveryDays": [
        "Mon",
        "Wed",
        "Thu",
        "Fri"
      ],
      "productType": "Normal",
      "daysInAdvance": 2
    },
    {
      "productId": "6",
      "name": "Lime",
      "deliveryDays": [
        "Mon",
        "Wed",
        "Thu",
        "Fri"
      ],
      "productType": "External",
      "daysInAdvance": 2
    },
    {
      "productId": "7",
      "name": "Ost",
      "deliveryDays": [
        "Mon",
        "Wed",
        "Thu",
        "Fri"
      ],
      "productType": "Temporary",
      "daysInAdvance": 2
    },
    {
      "productId": "8",
      "name": "Citron",
      "deliveryDays": [
        "Mon",
        "Wed",
        "Thu",
        "Fri"
      ],
      "productType": "Normal",
      "daysInAdvance": 2
    },
    {
      "productId": "9",
      "name": "Köt",
      "deliveryDays": [
        "Mon",
        "Wed",
        "Thu",
        "Fri"
      ],
      "productType": "External",
      "daysInAdvance": 2
    },
    {
      "productId": "10",
      "name": "Kanelbulle",
      "deliveryDays": [
        "Mon",
        "Wed",
        "Thu",
        "Fri"
      ],
      "productType": "Normal",
      "daysInAdvance": 2
    },
    {
      "productId": "11",
      "name": "Sallad",
      "deliveryDays": [
        "Mon",
        "Wed",
        "Thu",
        "Fri"
      ],
      "productType": "Normal",
      "daysInAdvance": 2
    },
    {
      "productId": "12",
      "name": "Kalkon",
      "deliveryDays": [
        "Mon",
        "Wed",
        "Thu",
        "Fri"
      ],
      "productType": "Temporary",
      "daysInAdvance": 2
    },
    {
      "productId": "13",
      "name": "Gurka",
      "deliveryDays": [
        "Mon",
        "Wed",
        "Thu",
        "Fri"
      ],
      "productType": "External",
      "daysInAdvance": 2
    },
    {
      "productId": "14",
      "name": "Mjölk",
      "deliveryDays": [
        "Mon",
        "Wed",
        "Thu",
        "Fri"
      ],
      "productType": "Temporary",
      "daysInAdvance": 2
    }
  ]
}